Introduction to Linear Models
…
.small[
`school_pntg` is a categorical variable about school of paintings with 7 levels:
`A`: Austrian, `D\FL`: Dutch/Flemish, `F`: French, `G`: German, `I`: Italian, `S`: Spanish, `X`: Unknown
]

```r
linear_reg() %>%
  set_engine("lm") %>%
  fit(Height_in ~ school_pntg, data = pp) %>%
  tidy()
```

```
## # A tibble: 7 × 5
##   term            estimate std.error statistic p.value
##   <chr>              <dbl>     <dbl>     <dbl>   <dbl>
## 1 (Intercept)        14.0       10.0     1.40  0.162  
## 2 school_pntgD/FL     2.33      10.0     0.232 0.816  
## 3 school_pntgF       10.2       10.0     1.02  0.309  
## 4 school_pntgG        1.65      11.9     0.139 0.889  
## 5 school_pntgI       10.3       10.0     1.02  0.306  
## 6 school_pntgS       30.4       11.4     2.68  0.00744
## # … with 1 more row
```

---

## Quiz

**Q - Interpret slope and intercept estimates in the context of data.** 

.small[
`school_pntg` is a categorical variable about school of paintings with 7 levels:
`A`: Austrian, `D\FL`: Dutch/Flemish, `F`: French, `G`: German, `I`: Italian, `S`: Spanish, `X`: Unknown

```
## # A tibble: 7 × 5
##   term            estimate std.error statistic p.value
##   <chr>              <dbl>     <dbl>     <dbl>   <dbl>
## 1 (Intercept)        14.0       10.0     1.40  0.162  
## 2 school_pntgD/FL     2.33      10.0     0.232 0.816  
## 3 school_pntgF       10.2       10.0     1.02  0.309  
## 4 school_pntgG        1.65      11.9     0.139 0.889  
## 5 school_pntgI       10.3       10.0     1.02  0.306  
## 6 school_pntgS       30.4       11.4     2.68  0.00744
## # … with 1 more row
```
…
